/* XPM */
static char * title_active_xpm[] = {
"6 30 3 1",
"       c None",
".      c #B0B0B0 s active_color_2",
"@      c #FFFFFF s active_color_2",
"@@@@@@@@",
"@@@@@@@@",
"........",
"........",
"........",
"........",
"........",
"........",
"........",
"........",
"........",
"........",
"........",
"........",
"........",
"........",
"........",
"........",
"........",
"........",
"........",
"........",
"........",
"........",
"........",
"........",
"........",
"........",
"........",
"........"};
