<?xml version="1.0" encoding="UTF-8" standalone="no"?>
<!-- Created with Inkscape (http://www.inkscape.org/) -->

<svg
   xmlns:dc="http://purl.org/dc/elements/1.1/"
   xmlns:cc="http://creativecommons.org/ns#"
   xmlns:rdf="http://www.w3.org/1999/02/22-rdf-syntax-ns#"
   xmlns:svg="http://www.w3.org/2000/svg"
   xmlns="http://www.w3.org/2000/svg"
   xmlns:xlink="http://www.w3.org/1999/xlink"
   xmlns:sodipodi="http://sodipodi.sourceforge.net/DTD/sodipodi-0.dtd"
   xmlns:inkscape="http://www.inkscape.org/namespaces/inkscape"
   width="22mm"
   height="22mm"
   viewBox="0 0 22 22"
   version="1.1"
   id="svg8"
   inkscape:version="0.92.1 r15371"
   sodipodi:docname="0hide-active.svg"
   inkscape:export-filename="/home/aa/位图.png"
   inkscape:export-xdpi="27.658882"
   inkscape:export-ydpi="27.658882">
  <defs
     id="defs2">
    <linearGradient
       inkscape:collect="always"
       id="linearGradient4826">
      <stop
         style="stop-color:#ffffff;stop-opacity:0.83561641"
         offset="0"
         id="stop4822" />
      <stop
         style="stop-color:#ffffff;stop-opacity:0.16438356"
         offset="1"
         id="stop4824" />
    </linearGradient>
    <linearGradient
       inkscape:collect="always"
       id="linearGradient4818">
      <stop
         style="stop-color:#ffffff;stop-opacity:0.63926941"
         offset="0"
         id="stop4814" />
      <stop
         style="stop-color:#ffffff;stop-opacity:0;"
         offset="1"
         id="stop4816" />
    </linearGradient>
    <linearGradient
       id="linearGradient4549-7-5"
       inkscape:collect="always">
      <stop
         id="stop4713"
         offset="0"
         style="stop-color:#c87137;stop-opacity:1;" />
      <stop
         id="stop4715"
         offset="1"
         style="stop-color:#ffa667;stop-opacity:0.61085975" />
    </linearGradient>
    <linearGradient
       inkscape:collect="always"
       xlink:href="#linearGradient4549-7-5"
       id="linearGradient4551"
       x1="65.506538"
       y1="285.66071"
       x2="64.214882"
       y2="181.33928"
       gradientUnits="userSpaceOnUse"
       gradientTransform="matrix(0.19440301,0,0,0.19403046,-1.6155683,240.69162)" />
    <linearGradient
       inkscape:collect="always"
       xlink:href="#linearGradient4818"
       id="linearGradient4820"
       x1="11.035308"
       y1="295.17297"
       x2="11.035308"
       y2="291.66504"
       gradientUnits="userSpaceOnUse"
       gradientTransform="matrix(1.2991343,0,0,2.5398719,-3.2306796,-454.02686)" />
    <linearGradient
       inkscape:collect="always"
       xlink:href="#linearGradient4826"
       id="linearGradient4828"
       x1="10.742982"
       y1="276.90259"
       x2="10.816064"
       y2="281.21439"
       gradientUnits="userSpaceOnUse"
       gradientTransform="matrix(1.321497,0,0,1.0298466,-3.011182,-9.5192205)" />
  </defs>
  <sodipodi:namedview
     id="base"
     pagecolor="#ffffff"
     bordercolor="#666666"
     borderopacity="1.0"
     inkscape:pageopacity="0.0"
     inkscape:pageshadow="2"
     inkscape:zoom="2.56"
     inkscape:cx="58.461682"
     inkscape:cy="85.969092"
     inkscape:document-units="mm"
     inkscape:current-layer="g4735"
     showgrid="false"
     inkscape:window-width="1920"
     inkscape:window-height="1017"
     inkscape:window-x="0"
     inkscape:window-y="35"
     inkscape:window-maximized="1" />
  <metadata
     id="metadata5">
    <rdf:RDF>
      <cc:Work
         rdf:about="">
        <dc:format>image/svg+xml</dc:format>
        <dc:type
           rdf:resource="http://purl.org/dc/dcmitype/StillImage" />
        <dc:title></dc:title>
      </cc:Work>
    </rdf:RDF>
  </metadata>
  <g
     inkscape:label="Layer 1"
     inkscape:groupmode="layer"
     id="layer1"
     transform="translate(0,-275)">
    <g
       id="g4735">
      <ellipse
         ry="10.560802"
         rx="10.654558"
         cy="285.99771"
         cx="10.993551"
         id="path18"
         style="opacity:1;fill:url(#linearGradient4551);fill-opacity:1;fill-rule:evenodd;stroke:#000000;stroke-width:0.6;stroke-linecap:round;stroke-linejoin:round;stroke-miterlimit:4;stroke-dasharray:none;stroke-dashoffset:0;stroke-opacity:0.82191783" />
      <ellipse
         style="opacity:1;fill:url(#linearGradient4820);fill-opacity:1;fill-rule:evenodd;stroke:none;stroke-width:4;stroke-linecap:round;stroke-linejoin:round;stroke-miterlimit:4;stroke-dasharray:none;stroke-dashoffset:0;stroke-opacity:0.28755368"
         id="path4737"
         cx="10.98602"
         cy="291.45062"
         rx="7.3995738"
         ry="4.8430562" />
      <ellipse
         style="opacity:1;fill:url(#linearGradient4828);fill-opacity:1;fill-rule:evenodd;stroke:none;stroke-width:3.99999976;stroke-linecap:round;stroke-linejoin:round;stroke-miterlimit:4;stroke-dasharray:none;stroke-dashoffset:0;stroke-opacity:0.28755368"
         id="path4753"
         cx="10.868114"
         cy="278.11185"
         rx="5.4071593"
         ry="2.3949356" />
    </g>
  </g>
</svg>
