/* XPM */
static char * close_active_xpm[] = {
"24 28 224 2",
"  	c None",
". 	c #A8A8A8",
"+ 	c #EBEAEB",
"@ 	c #FAF9FA",
"# 	c #F5F4F5",
"$ 	c #F2F1F2",
"% 	c #C1BFC0",
"& 	c #8C7D7E",
"* 	c #8E7B7B",
"= 	c #998282",
"- 	c #967F80",
"; 	c #8C7878",
"> 	c #8B7C7D",
", 	c #C4C2C3",
"' 	c #F3F2F3",
") 	c #F1F0F1",
"! 	c #ACA5A6",
"~ 	c #8A7172",
"{ 	c #D7B4B4",
"] 	c #F8D8D8",
"^ 	c #FDDCDD",
"/ 	c #FCDCDC",
"( 	c #F6D2D2",
"_ 	c #CFA6A6",
": 	c #7B6161",
"< 	c #AFA8A9",
"[ 	c #E6E5E6",
"} 	c #756163",
"| 	c #C28080",
"1 	c #FBC8CA",
"2 	c #FCCACA",
"3 	c #FCC8CA",
"4 	c #FBC7C8",
"5 	c #FCC8C8",
"6 	c #FCC7C8",
"7 	c #FBC2C3",
"8 	c #B46B6B",
"9 	c #776566",
"0 	c #E8E7E8",
"a 	c #F0EFF0",
"b 	c #E2E1E2",
"c 	c #6C5253",
"d 	c #DA7273",
"e 	c #F69495",
"f 	c #F8B3B3",
"g 	c #F8B3B4",
"h 	c #F8B2B3",
"i 	c #F8B2B2",
"j 	c #F8B1B1",
"k 	c #F8B0B2",
"l 	c #F58586",
"m 	c #D76F70",
"n 	c #6C5455",
"o 	c #E4E3E4",
"p 	c #EEEDEE",
"q 	c #725D5F",
"r 	c #DC6E70",
"s 	c #F3787B",
"t 	c #F37A7C",
"u 	c #F4898A",
"v 	c #F5989A",
"w 	c #F59A9C",
"x 	c #F49A9C",
"y 	c #F59A9B",
"z 	c #F49495",
"A 	c #F38082",
"B 	c #F2787A",
"C 	c #F3787A",
"D 	c #D76B6E",
"E 	c #735F5F",
"F 	c #ECEBEC",
"G 	c #9C9192",
"H 	c #BA5B5E",
"I 	c #F17376",
"J 	c #F1797B",
"K 	c #F17B7D",
"L 	c #F17D7F",
"M 	c #F17D7E",
"N 	c #F07578",
"O 	c #F07275",
"P 	c #B45B5C",
"Q 	c #A09898",
"R 	c #724A4B",
"S 	c #EF6D71",
"T 	c #EE6D70",
"U 	c #6F4A4C",
"V 	c #E8E8E8",
"W 	c #A7A1A1",
"X 	c #B55256",
"Y 	c #EB676C",
"Z 	c #ED676C",
"` 	c #EB676A",
" .	c #AC4F52",
"..	c #AEAAAA",
"+.	c #E6E6E6",
"@.	c #765F60",
"#.	c #E56064",
"$.	c #E96166",
"%.	c #E96066",
"&.	c #E15D62",
"*.	c #786464",
"=.	c #E5E5E5",
"-.	c #755151",
";.	c #E75C62",
">.	c #E85C62",
",.	c #E75B61",
"'.	c #745255",
").	c #E3E3E3",
"!.	c #734649",
"~.	c #E5565D",
"{.	c #E4555C",
"].	c #73494B",
"^.	c #E1E0E1",
"/.	c #724548",
"(.	c #E35159",
"_.	c #E25058",
":.	c #E24F57",
"<.	c #734749",
"[.	c #DFDEDF",
"}.	c #714B4D",
"|.	c #E04B53",
"1.	c #DF4A52",
"2.	c #DF4D56",
"3.	c #E05259",
"4.	c #E2545C",
"5.	c #E3545C",
"6.	c #E25159",
"7.	c #E04C56",
"8.	c #E04952",
"9.	c #704C4E",
"0.	c #DEDDDE",
"a.	c #72585A",
"b.	c #D8434D",
"c.	c #DE444F",
"d.	c #DE4850",
"e.	c #E0565F",
"f.	c #E05A63",
"g.	c #E15A63",
"h.	c #E1565F",
"i.	c #DE4550",
"j.	c #DE434E",
"k.	c #D6424B",
"l.	c #765D5F",
"m.	c #DCDBDC",
"n.	c #A19B9C",
"o.	c #A5333A",
"p.	c #DB3F49",
"q.	c #E15B63",
"r.	c #E3646D",
"s.	c #E2646C",
"t.	c #E05862",
"u.	c #DC3D48",
"v.	c #9E3038",
"w.	c #A7A2A3",
"x.	c #DAD9DA",
"y.	c #D3D2D3",
"z.	c #68393D",
"A.	c #D93845",
"B.	c #DA4551",
"C.	c #E36E77",
"D.	c #E46E77",
"E.	c #DA434E",
"F.	c #D93843",
"G.	c #653A3D",
"H.	c #D4D3D4",
"I.	c #D8D8D8",
"J.	c #908586",
"K.	c #A22C34",
"L.	c #DB4C57",
"M.	c #E37880",
"N.	c #E27680",
"O.	c #D94853",
"P.	c #9C2A33",
"Q.	c #968D8E",
"R.	c #D6D6D6",
"S.	c #D4D4D4",
"T.	c #664C4E",
"U.	c #C33B45",
"V.	c #E6848B",
"W.	c #E6838B",
"X.	c #E5828A",
"Y.	c #BD3440",
"Z.	c #684E50",
"`.	c #CACACA",
" +	c #5E3C3F",
".+	c #CF6B73",
"++	c #E68E96",
"@+	c #E58D95",
"#+	c #CB646D",
"$+	c #613F42",
"%+	c #CBCBCB",
"&+	c #D2D2D2",
"*+	c #C9C9C9",
"=+	c #695052",
"-+	c #B97178",
";+	c #E99CA4",
">+	c #EA9CA4",
",+	c #EA9BA4",
"'+	c #EA9BA3",
")+	c #E99BA3",
"!+	c #B46C72",
"~+	c #6B5255",
"{+	c #D1D1D1",
"]+	c #D0D0D0",
"^+	c #968E8F",
"/+	c #795558",
"(+	c #BB7E84",
"_+	c #E3A3AA",
":+	c #EBAAB0",
"<+	c #E3A2A9",
"[+	c #BA7A81",
"}+	c #765257",
"|+	c #9A9393",
"1+	c #CFCFCF",
"2+	c #CDCDCD",
"3+	c #A7A5A5",
"4+	c #786162",
"5+	c #77585A",
"6+	c #7F595C",
"7+	c #76575A",
"8+	c #776163",
"9+	c #AAA8A8",
"0+	c #C6C6C6",
"a+	c #A9A9A9",
". . . . . . . . . . . . . . . . . . . . . . . . ",
"+ + + + + + + + + + + + + + + + + + + + + + + + ",
"@ @ @ @ @ @ @ @ @ @ @ @ @ @ @ @ @ @ @ @ @ @ @ @ ",
"# # # # # # # $ % & * = - ; > , ' # # # # # # # ",
"' ' ' ' ' ) ! ~ { ] ^ ^ / / ( _ : < $ ' ' ' ' ' ",
"$ $ $ $ [ } | 1 2 3 3 4 5 5 6 6 7 8 9 0 $ $ $ $ ",
"a a a b c d e f g g g h h i i j k l m n o a a a ",
"p p + q r s t u v w x x y y y z A B C D E F p p ",
"F F G H I I I I I J K L M K N O O O O O P Q F F ",
"+ b R S S S S S S S S S T T T T T T T T T U o + ",
"V W X Y Y Y Y Y Y Z Z Z Z ` ` ` ` ` ` ` `  ...V ",
"+.@.#.$.$.$.$.$.$.$.$.$.$.$.$.%.%.%.%.%.%.&.*.+.",
"=.-.;.;.;.;.;.>.>.>.>.>.>.>.>.>.>.,.,.,.,.,.'.=.",
").!.~.~.~.~.~.~.~.~.~.~.~.~.~.~.~.~.~.{.{.{.].).",
"^./.(.(._._._._._._._._._._._._._._._._.:.:.<.^.",
"[.}.|.|.|.|.1.2.3.4.4.4.4.4.5.6.7.8.8.8.8.8.9.[.",
"0.a.b.c.c.d.e.f.f.f.f.g.g.g.g.g.g.h.i.j.j.k.l.0.",
"m.n.o.p.p.q.r.r.r.s.s.s.s.s.s.s.s.s.t.u.u.v.w.m.",
"x.y.z.A.B.C.C.C.C.C.C.C.C.C.C.C.C.C.D.E.F.G.H.x.",
"I.I.J.K.L.M.M.M.M.M.M.M.M.N.N.N.N.N.N.O.P.Q.I.I.",
"R.R.S.T.U.V.V.V.V.W.W.W.W.W.X.X.X.X.X.Y.Z.S.R.R.",
"S.S.S.`. +.+++++++++++++++++++++@+@+#+$+%+S.S.S.",
"&+&+&+&+*+=+-+;+>+>+>+,+,+,+,+'+)+!+~+%+&+&+&+&+",
"{+{+{+{+{+]+^+/+(+_+:+:+:+:+<+[+}+|+{+{+{+{+{+{+",
"1+1+1+1+1+1+1+2+3+4+5+6+6+7+8+9+2+1+1+1+1+1+1+1+",
"1+1+1+1+1+1+1+1+1+1+1+1+1+1+1+1+1+1+1+1+1+1+1+1+",
"0+0+0+0+0+0+0+0+0+0+0+0+0+0+0+0+0+0+0+0+0+0+0+0+",
"a+a+a+a+a+a+a+a+a+a+a+a+a+a+a+a+a+a+a+a+a+a+a+a+"};
