/* XPM */
static char * hide_pressed_xpm[] = {
"24 28 129 2",
"  	c None",
". 	c #A8A8A8",
"+ 	c #EBEAEB",
"@ 	c #FAF9FA",
"# 	c #F5F4F5",
"$ 	c #F2F1F2",
"% 	c #C1C0C1",
"& 	c #898889",
"* 	c #8A8A8A",
"= 	c #929292",
"- 	c #919091",
"; 	c #888788",
"> 	c #C4C3C4",
", 	c #F3F2F3",
"' 	c #F1F0F1",
") 	c #ABAAAB",
"! 	c #848384",
"~ 	c #CECECE",
"{ 	c #F2F2F2",
"] 	c #F5F5F5",
"^ 	c #EEEEEE",
"/ 	c #C5C5C5",
"( 	c #757575",
"_ 	c #ADACAD",
": 	c #E6E5E6",
"< 	c #707070",
"[ 	c #B3B3B3",
"} 	c #F0F0F0",
"| 	c #F1F1F1",
"1 	c #A4A4A4",
"2 	c #747374",
"3 	c #E8E7E8",
"4 	c #F0EFF0",
"5 	c #E2E1E2",
"6 	c #676667",
"7 	c #E1E1E1",
"8 	c #EAEAEA",
"9 	c #EBEBEB",
"0 	c #E9E9E9",
"a 	c #DDDDDD",
"b 	c #C0BFC0",
"c 	c #686768",
"d 	c #E4E3E4",
"e 	c #EEEDEE",
"f 	c #6D6D6D",
"g 	c #C5C4C5",
"h 	c #DADADA",
"i 	c #DEDEDE",
"j 	c #DDDCDD",
"k 	c #C2C2C2",
"l 	c #6F6F6F",
"m 	c #ECEBEC",
"n 	c #9A999A",
"o 	c #D9D8D9",
"p 	c #DAD9DA",
"q 	c #DCDBDC",
"r 	c #D9D9D9",
"s 	c #D8D8D8",
"t 	c #A4A3A4",
"u 	c #9F9F9F",
"v 	c #696969",
"w 	c #D7D7D7",
"x 	c #686868",
"y 	c #E8E8E8",
"z 	c #A5A5A5",
"A 	c #D6D6D6",
"B 	c #D4D4D4",
"C 	c #9D9D9D",
"D 	c #ADADAD",
"E 	c #E6E6E6",
"F 	c #737373",
"G 	c #CFCFCF",
"H 	c #D3D3D3",
"I 	c #CBCBCB",
"J 	c #E5E5E5",
"K 	c #D2D2D2",
"L 	c #717171",
"M 	c #E3E3E3",
"N 	c #D1D1D1",
"O 	c #6E6E6E",
"P 	c #E1E0E1",
"Q 	c #6C6B6C",
"R 	c #D0D0D0",
"S 	c #6D6C6D",
"T 	c #DFDEDF",
"U 	c #CFCECF",
"V 	c #6C6C6C",
"W 	c #DEDDDE",
"X 	c #C8C8C8",
"Y 	c #CDCDCD",
"Z 	c #737273",
"` 	c #A1A0A1",
" .	c #9A9A9A",
"..	c #D3D2D3",
"+.	c #CCCCCC",
"@.	c #939393",
"#.	c #A7A6A7",
"$.	c #646364",
"%.	c #626262",
"&.	c #D4D3D4",
"*.	c #909090",
"=.	c #999999",
"-.	c #DCDCDC",
";.	c #DBDBDB",
">.	c #949494",
",.	c #959595",
"'.	c #646464",
").	c #B9B9B9",
"!.	c #DFDFDF",
"~.	c #E0E0E0",
"{.	c #B6B6B6",
"].	c #676767",
"^.	c #CACACA",
"/.	c #5E5E5E",
"(.	c #E2E2E2",
"_.	c #C6C6C6",
":.	c #5F5F5F",
"<.	c #C9C9C9",
"[.	c #E7E7E7",
"}.	c #B1B1B1",
"|.	c #969696",
"1.	c #777777",
"2.	c #B8B8B8",
"3.	c #747474",
"4.	c #A7A7A7",
"5.	c #767676",
"6.	c #7F7F7F",
"7.	c #AAAAAA",
"8.	c #A9A9A9",
". . . . . . . . . . . . . . . . . . . . . . . . ",
"+ + + + + + + + + + + + + + + + + + + + + + + + ",
"@ @ @ @ @ @ @ @ @ @ @ @ @ @ @ @ @ @ @ @ @ @ @ @ ",
"# # # # # # # $ % & * = - & ; > , # # # # # # # ",
", , , , , ' ) ! ~ { ] ] ] ] ^ / ( _ $ , , , , , ",
"$ $ $ $ : < [ } | } | } | | } } ^ 1 2 3 $ $ $ $ ",
"4 4 4 5 6 > 7 8 9 9 8 8 8 0 0 0 0 a b c d 4 4 4 ",
"e e + f g h h i d d d d d d d 5 j h h k l m e e ",
"m m n . o o o o o p h q h h r s s o o o t u m m ",
"+ 5 v w w w s s s s s s w w w w w w w w w x d + ",
"y z 1 A A A A A A A A A A B B B B B A A A C D y ",
"E F G H H H H B B B B B B B B H H H H H H I ( E ",
"J < H H H H H H H H H H H H H H H K K K H H L J ",
"M f N N N N N N N N N K K K K K K K K N N N O M ",
"P Q N N R R R R R R R R R R R R R R R R G G S P ",
"T f G G G G U G R K K K K K K R G U G G G G V T ",
"W l X Y Y ~ K K K K H H H H H H H H G ~ ~ / Z W ",
"q `  .Y Y B w w w A A A A A A A A A ..+.+.@.#.q ",
"p ..$.I G r r r r r r r r r r r r r r ~ I %.&.p ",
"s s *.=.R -.-.-.-.-.-.-.-.;.;.;.;.;.;.G >.,.s s ",
"A A B '.).!.!.!.!.~.~.~.~.~.!.!.!.!.!.{.].B A A ",
"B B B ^./.I (.(.(.(.(.(.(.(.(.(.7 7 _.:.I B B B ",
"K K K K <.x {.E [.[.[.[.[.[.[.[.E }.v I K K K K ",
"N N N N N R |.1.).(.0 0 0 0 7 2.3. .N N N N N N ",
"G G G G G G G Y 4.5.5.6.6.5.5.7.Y G G G G G G G ",
"G G G G G G G G G G G G G G G G G G G G G G G G ",
"_._._._._._._._._._._._._._._._._._._._._._._._.",
"8.8.8.8.8.8.8.8.8.8.8.8.8.8.8.8.8.8.8.8.8.8.8.8."};
