/* XPM */
static char * stick_toggled_active_xpm[] = {
"24 28 243 2",
"  	c None",
". 	c #A8A8A8",
"+ 	c #EBEAEB",
"@ 	c #FAF9FA",
"# 	c #F5F4F5",
"$ 	c #F2F1F2",
"% 	c #C0BFC1",
"& 	c #7F858B",
"* 	c #7C858D",
"= 	c #848E97",
"- 	c #818B94",
"; 	c #7A828A",
"> 	c #7E838A",
", 	c #C3C2C4",
"' 	c #F3F2F3",
") 	c #F1F0F1",
"! 	c #A6A9AC",
"~ 	c #757E87",
"{ 	c #B6C5D4",
"] 	c #DBE8F6",
"^ 	c #DFEDFB",
"/ 	c #DEECFB",
"( 	c #D5E5F4",
"_ 	c #ABBBCB",
": 	c #636E79",
"< 	c #AAABAE",
"[ 	c #E6E5E6",
"} 	c #636B72",
"| 	c #85A0BC",
"1 	c #CCE2F7",
"2 	c #CDE2F8",
"3 	c #CCE1F7",
"4 	c #CAE1F7",
"5 	c #C6DEF6",
"6 	c #708FAF",
"7 	c #666E76",
"8 	c #E8E7E8",
"9 	c #F0EFF0",
"0 	c #E2E1E2",
"a 	c #555F6A",
"b 	c #79A6D3",
"c 	c #9BC5F0",
"d 	c #B9D6F4",
"e 	c #B8D7F4",
"f 	c #B8D6F4",
"g 	c #B7D6F4",
"h 	c #B6D5F4",
"i 	c #B6D4F3",
"j 	c #8DBDED",
"k 	c #76A2CF",
"l 	c #57616C",
"m 	c #E4E3E4",
"n 	c #EEEDEE",
"o 	c #5F6770",
"p 	c #76A5D5",
"q 	c #81B6EB",
"r 	c #82B7EB",
"s 	c #8FBFED",
"t 	c #9EC7EF",
"u 	c #A0C9F0",
"v 	c #A0C7EE",
"w 	c #A1C7F0",
"x 	c #9FC7F0",
"y 	c #9AC4EE",
"z 	c #88B9EB",
"A 	c #80B5EA",
"B 	c #73A2D0",
"C 	c #606972",
"D 	c #ECEBEC",
"E 	c #93969B",
"F 	c #628BB3",
"G 	c #7AB1E9",
"H 	c #82B5E9",
"I 	c #84B7E9",
"J 	c #83B6E9",
"K 	c #82B6E9",
"L 	c #7DB2E8",
"M 	c #7AB0E8",
"N 	c #5F88AF",
"O 	c #989C9F",
"P 	c #4C5D6E",
"Q 	c #75ADE6",
"R 	c #75ADE7",
"S 	c #5795D6",
"T 	c #3A7EC5",
"U 	c #397EC4",
"V 	c #5695D5",
"W 	c #74ADE6",
"X 	c #4D5D6D",
"Y 	c #E8E8E8",
"Z 	c #A1A5A7",
"` 	c #5784AF",
" .	c #6FAAE4",
"..	c #5393D3",
"+.	c #1B66B3",
"@.	c #377DC3",
"#.	c #1A66B3",
"$.	c #5192D3",
"%.	c #6DA9E4",
"&.	c #537EA7",
"*.	c #AAACAE",
"=.	c #E6E6E6",
"-.	c #606B75",
";.	c #66A2DC",
">.	c #69A5E2",
",.	c #4E8FD2",
"'.	c #1965B3",
").	c #4D8FD2",
"!.	c #1965B2",
"~.	c #4C8FD0",
"{.	c #66A5E0",
"].	c #639FD8",
"^.	c #646E77",
"/.	c #E5E5E5",
"(.	c #516373",
"_.	c #62A1DF",
":.	c #62A1E0",
"<.	c #3078C1",
"[.	c #1864B2",
"}.	c #498CD0",
"|.	c #3079C1",
"1.	c #61A1DF",
"2.	c #556473",
"3.	c #E3E3E3",
"4.	c #485C70",
"5.	c #5C9CDD",
"6.	c #2D76C0",
"7.	c #5B9CDD",
"8.	c #5A9CDD",
"9.	c #4A5E71",
"0.	c #E1E0E1",
"a.	c #475B70",
"b.	c #5699DB",
"c.	c #5598DB",
"d.	c #2A74BF",
"e.	c #5497DA",
"f.	c #495C70",
"g.	c #DFDEDF",
"h.	c #4C5E6F",
"i.	c #5095DA",
"j.	c #4E94D8",
"k.	c #2873BE",
"l.	c #1562B1",
"m.	c #4187CC",
"n.	c #589ADA",
"o.	c #4D5E6E",
"p.	c #DEDDDE",
"q.	c #596470",
"r.	c #478DD1",
"s.	c #4991D7",
"t.	c #4C92D8",
"u.	c #5A9BDA",
"v.	c #478ACC",
"w.	c #1764B1",
"x.	c #5F9EDA",
"y.	c #599ADB",
"z.	c #4A90D8",
"A.	c #4890D7",
"B.	c #458BCF",
"C.	c #5D6874",
"D.	c #DCDBDC",
"E.	c #9C9EA1",
"F.	c #366AA0",
"G.	c #428CD4",
"H.	c #5E9CDB",
"I.	c #68A3DC",
"J.	c #4D8ECD",
"K.	c #3379C0",
"L.	c #4D8DCE",
"M.	c #67A2DD",
"N.	c #5C9BDA",
"O.	c #418BD5",
"P.	c #336698",
"Q.	c #A3A4A7",
"R.	c #DAD9DA",
"S.	c #D3D2D3",
"T.	c #3A5065",
"U.	c #3B87D1",
"V.	c #4990D5",
"W.	c #70A8DD",
"X.	c #5392CE",
"Y.	c #377CC0",
"Z.	c #458ED5",
"`.	c #3A86D1",
" +	c #3B4F63",
".+	c #D4D3D4",
"++	c #D8D8D8",
"@+	c #858A90",
"#+	c #2E669F",
"$+	c #4F93D7",
"%+	c #79ADE0",
"&+	c #78ACDF",
"*+	c #4A8FD5",
"=+	c #2D6399",
"-+	c #8D9196",
";+	c #D6D6D6",
">+	c #D4D4D4",
",+	c #4C5865",
"'+	c #3C7EBD",
")+	c #84B4E2",
"!+	c #83B3E1",
"~+	c #3679BA",
"{+	c #4F5B67",
"]+	c #CACACA",
"^+	c #3C4D5E",
"/+	c #6C9BCB",
"(+	c #8FB9E3",
"_+	c #8EB9E3",
":+	c #8EB9E4",
"<+	c #8DB8E3",
"[+	c #6596C8",
"}+	c #404F5F",
"|+	c #CBCBCB",
"1+	c #D2D2D2",
"2+	c #C9C9C9",
"3+	c #505D68",
"4+	c #7193B7",
"5+	c #9CC2E7",
"6+	c #9CC2E6",
"7+	c #6C90B2",
"8+	c #525E6B",
"9+	c #D1D1D1",
"0+	c #D0D0D0",
"a+	c #8E9296",
"b+	c #556777",
"c+	c #7E9CB9",
"d+	c #A3C3E2",
"e+	c #AACAE9",
"f+	c #A2C2E1",
"g+	c #7A9AB8",
"h+	c #526374",
"i+	c #93969A",
"j+	c #CFCFCF",
"k+	c #CDCDCD",
"l+	c #A5A6A7",
"m+	c #616B76",
"n+	c #586776",
"o+	c #586C7F",
"p+	c #576775",
"q+	c #606B76",
"r+	c #A8A8AA",
"s+	c #C6C6C6",
"t+	c #A9A9A9",
". . . . . . . . . . . . . . . . . . . . . . . . ",
"+ + + + + + + + + + + + + + + + + + + + + + + + ",
"@ @ @ @ @ @ @ @ @ @ @ @ @ @ @ @ @ @ @ @ @ @ @ @ ",
"# # # # # # # $ % & * = - ; > , ' # # # # # # # ",
"' ' ' ' ' ) ! ~ { ] ^ ^ / / ( _ : < $ ' ' ' ' ' ",
"$ $ $ $ [ } | 1 2 1 1 3 3 3 4 4 5 6 7 8 $ $ $ $ ",
"9 9 9 0 a b c d e e f g g h h i i j k l m 9 9 9 ",
"n n + o p q r s t u v v w w x y z A A B C D n n ",
"D D E F G G G G G A H I J K L M M M M M N O D D ",
"+ 0 P Q Q Q Q Q R S T T U U V W W W W W W X m + ",
"Y Z `  . . . . ...+.+.@.@.#.#.$.%.%.%.%.%.&.*.Y ",
"=.-.;.>.>.>.>.,.'.'.,.>.>.).'.!.~.{.{.{.{.].^.=.",
"/.(._._.:.:.:.<.[.}.:.:.:.:.}.[.|.1.1.1.1.1.2./.",
"3.4.5.5.5.5.5.6.6.5.5.5.5.5.7.6.6.7.7.8.8.8.9.3.",
"0.a.b.b.c.c.c.d.d.c.c.c.c.c.c.d.d.c.c.c.e.e.f.0.",
"g.h.i.i.i.i.j.k.l.m.n.n.n.n.m.l.k.j.j.j.j.j.o.g.",
"p.q.r.s.s.t.u.v.w.w.v.x.x.v.w.w.v.y.z.A.A.B.C.p.",
"D.E.F.G.G.H.I.I.J.!.!.K.K.!.!.L.M.M.N.O.O.P.Q.D.",
"R.S.T.U.V.W.W.W.W.X.Y.Y.Y.Y.X.W.W.W.W.Z.`. +.+R.",
"++++@+#+$+%+%+%+%+%+%+%+%+&+&+&+&+&+&+*+=+-+++++",
";+;+>+,+'+)+)+)+)+)+)+)+)+)+!+!+!+!+!+~+{+>+;+;+",
">+>+>+]+^+/+(+(+(+_+_+:+:+:+:+:+<+<+[+}+|+>+>+>+",
"1+1+1+1+2+3+4+5+5+5+5+5+5+5+5+5+6+7+8+|+1+1+1+1+",
"9+9+9+9+9+0+a+b+c+d+e+e+e+e+f+g+h+i+9+9+9+9+9+9+",
"j+j+j+j+j+j+j+k+l+m+n+o+o+p+q+r+k+j+j+j+j+j+j+j+",
"j+j+j+j+j+j+j+j+j+j+j+j+j+j+j+j+j+j+j+j+j+j+j+j+",
"s+s+s+s+s+s+s+s+s+s+s+s+s+s+s+s+s+s+s+s+s+s+s+s+",
"t+t+t+t+t+t+t+t+t+t+t+t+t+t+t+t+t+t+t+t+t+t+t+t+"};
